%YAML 1.1
%TAG !u! tag:unity3d.com,2011:
--- !u!241 &24100000
AudioMixerController:
  m_ObjectHideFlags: 0
  m_CorrespondingSourceObject: {fileID: 0}
  m_PrefabInstance: {fileID: 0}
  m_PrefabAsset: {fileID: 0}
  m_Name: Alto 1
  m_OutputGroup: {fileID: 24300002, guid: 7bb745948e9ed4c15b7c15241e27eb10, type: 2}
  m_MasterGroup: {fileID: 24300002}
  m_Snapshots:
  - {fileID: 24500006}
  m_StartSnapshot: {fileID: 24500006}
  m_SuspendThreshold: -80
  m_EnableSuspend: 1
  m_UpdateMode: 0
  m_ExposedParameters:
  - guid: 073521608f57544cdbd5d71760aaed98
    name: partVol
  m_AudioMixerGroupViews:
  - guids:
    - c821554829a2a4aefa023e1375c13312
    name: View
  m_CurrentViewIndex: 0
  m_TargetSnapshot: {fileID: 24500006}
--- !u!243 &24300002
AudioMixerGroupController:
  m_ObjectHideFlags: 0
  m_CorrespondingSourceObject: {fileID: 0}
  m_PrefabInstance: {fileID: 0}
  m_PrefabAsset: {fileID: 0}
  m_Name: Master
  m_AudioMixer: {fileID: 24100000}
  m_GroupID: c821554829a2a4aefa023e1375c13312
  m_Children: []
  m_Volume: 073521608f57544cdbd5d71760aaed98
  m_Pitch: e46ecfd212765412098f42412de91ae4
  m_Send: 00000000000000000000000000000000
  m_Effects:
  - {fileID: 24400004}
  - {fileID: 22964491721997788}
  m_UserColorIndex: 0
  m_Mute: 0
  m_Solo: 0
  m_BypassEffects: 0
--- !u!244 &24400004
AudioMixerEffectController:
  m_ObjectHideFlags: 3
  m_CorrespondingSourceObject: {fileID: 0}
  m_PrefabInstance: {fileID: 0}
  m_PrefabAsset: {fileID: 0}
  m_Name: 
  m_EffectID: 6b5280fb6d90b477cab478977a94afed
  m_EffectName: Attenuation
  m_MixLevel: 876f49cd028e342eb899b538798551c6
  m_Parameters: []
  m_SendTarget: {fileID: 0}
  m_EnableWetMix: 0
  m_Bypass: 0
--- !u!245 &24500006
AudioMixerSnapshotController:
  m_ObjectHideFlags: 0
  m_CorrespondingSourceObject: {fileID: 0}
  m_PrefabInstance: {fileID: 0}
  m_PrefabAsset: {fileID: 0}
  m_Name: Snapshot
  m_AudioMixer: {fileID: 24100000}
  m_SnapshotID: 2498fd7f62aaf4bca9b2334d7129eb08
  m_FloatValues:
    073521608f57544cdbd5d71760aaed98: -80
    d9aee54e362a44323809c18968922546: 0
  m_TransitionOverrides: {}
--- !u!244 &22964491721997788
AudioMixerEffectController:
  m_ObjectHideFlags: 3
  m_CorrespondingSourceObject: {fileID: 0}
  m_PrefabInstance: {fileID: 0}
  m_PrefabAsset: {fileID: 0}
  m_Name: 
  m_EffectID: f8e5b211a228a41b590f87c3c2b8cbbe
  m_EffectName: SFX Reverb
  m_MixLevel: dd7cd6cc6b7a94147b9b78e3736baa63
  m_Parameters:
  - m_ParameterName: Dry Level
    m_GUID: efffc3246e4e0400e908892028d81e78
  - m_ParameterName: Room
    m_GUID: d9aee54e362a44323809c18968922546
  - m_ParameterName: Room HF
    m_GUID: b8345a2c7f68448ac8ebbc18aff9bba8
  - m_ParameterName: Decay Time
    m_GUID: 1e90d974b5c5d40e281edd91910d7f60
  - m_ParameterName: Decay HF Ratio
    m_GUID: 83ae2275b2dc1486381f2eed8933bc7b
  - m_ParameterName: Reflections
    m_GUID: ee5d3c60fda894698843a5592b646d5f
  - m_ParameterName: Reflect Delay
    m_GUID: bf9f012cb3f11471ea89851d26d8cb89
  - m_ParameterName: Reverb
    m_GUID: dcc84479596b243b1817b3d8f46a0122
  - m_ParameterName: Reverb Delay
    m_GUID: 952354ea074164c1bbfc86aeb926e654
  - m_ParameterName: Diffusion
    m_GUID: 129ad71fcff32453e991a5c69d2f4082
  - m_ParameterName: Density
    m_GUID: 41f6bea92c34444c2b2815d3871910d3
  - m_ParameterName: HF Reference
    m_GUID: 3ce53db2b07214211a8d2b2afb12462e
  - m_ParameterName: Room LF
    m_GUID: 4c8e39cdf9a484ee782ae2ca440feafe
  - m_ParameterName: LF Reference
    m_GUID: b47020feea6534505af09f544c58c1ce
  m_SendTarget: {fileID: 0}
  m_EnableWetMix: 0
  m_Bypass: 0
