%YAML 1.1
%TAG !u! tag:unity3d.com,2011:
--- !u!244 &-3569352012093215813
AudioMixerEffectController:
  m_ObjectHideFlags: 3
  m_CorrespondingSourceObject: {fileID: 0}
  m_PrefabInstance: {fileID: 0}
  m_PrefabAsset: {fileID: 0}
  m_Name: 
  m_EffectID: e9ffce8f2a8b74e7da1e8d9f2d33fee1
  m_EffectName: SFX Reverb
  m_MixLevel: ff06a2af080454ed19fafd6cf5a52706
  m_Parameters:
  - m_ParameterName: Dry Level
    m_GUID: 04d2528d2e0a74d30a25f2e136207734
  - m_ParameterName: Room
    m_GUID: cfa5682c5c3f3481aa6377fe83634ca4
  - m_ParameterName: Room HF
    m_GUID: 9a88a9bac247e4643a20c0473b05b615
  - m_ParameterName: Decay Time
    m_GUID: 35f35feba746747dd818a083e5f385b1
  - m_ParameterName: Decay HF Ratio
    m_GUID: 7bf1b56eae0b24b14adaacb3c5be17e5
  - m_ParameterName: Reflections
    m_GUID: 152674fe0aae246538f320a60c631585
  - m_ParameterName: Reflect Delay
    m_GUID: a3b17ff90dbce470e99100ad25bba752
  - m_ParameterName: Reverb
    m_GUID: 9f7ae6f5055c345518ab47614448a973
  - m_ParameterName: Reverb Delay
    m_GUID: 1f2361c6c04724a55a3b7f4d8f6de141
  - m_ParameterName: Diffusion
    m_GUID: 972acfb8f4b584d1396f944877b41794
  - m_ParameterName: Density
    m_GUID: 6c7fac12c98b34d68b3bae3c9b69c325
  - m_ParameterName: HF Reference
    m_GUID: db3a63acd662a4c3a95e8da99a6e2b02
  - m_ParameterName: Room LF
    m_GUID: b4da85a59f40343c7919b9227d345f3a
  - m_ParameterName: LF Reference
    m_GUID: 7fe1eef6d16a04ba3b3b2696dc5d09b0
  m_SendTarget: {fileID: 0}
  m_EnableWetMix: 0
  m_Bypass: 0
--- !u!241 &24100000
AudioMixerController:
  m_ObjectHideFlags: 0
  m_CorrespondingSourceObject: {fileID: 0}
  m_PrefabInstance: {fileID: 0}
  m_PrefabAsset: {fileID: 0}
  m_Name: Tenor 1
  m_OutputGroup: {fileID: 24300002, guid: 7bb745948e9ed4c15b7c15241e27eb10, type: 2}
  m_MasterGroup: {fileID: 24300002}
  m_Snapshots:
  - {fileID: 24500006}
  m_StartSnapshot: {fileID: 24500006}
  m_SuspendThreshold: -15
  m_EnableSuspend: 1
  m_UpdateMode: 0
  m_ExposedParameters:
  - guid: ce8b25759a1bd4c6aa14ae03c922c2e8
    name: partVol
  m_AudioMixerGroupViews:
  - guids:
    - 22f5297d8244945b9a3b7cd67c42a88b
    name: View
  m_CurrentViewIndex: 0
  m_TargetSnapshot: {fileID: 24500006}
--- !u!243 &24300002
AudioMixerGroupController:
  m_ObjectHideFlags: 0
  m_CorrespondingSourceObject: {fileID: 0}
  m_PrefabInstance: {fileID: 0}
  m_PrefabAsset: {fileID: 0}
  m_Name: Master
  m_AudioMixer: {fileID: 24100000}
  m_GroupID: 22f5297d8244945b9a3b7cd67c42a88b
  m_Children: []
  m_Volume: ce8b25759a1bd4c6aa14ae03c922c2e8
  m_Pitch: b6e86759623a44c89b6b7e9f9ba57109
  m_Send: 00000000000000000000000000000000
  m_Effects:
  - {fileID: 24400004}
  - {fileID: -3569352012093215813}
  m_UserColorIndex: 0
  m_Mute: 0
  m_Solo: 0
  m_BypassEffects: 0
--- !u!244 &24400004
AudioMixerEffectController:
  m_ObjectHideFlags: 3
  m_CorrespondingSourceObject: {fileID: 0}
  m_PrefabInstance: {fileID: 0}
  m_PrefabAsset: {fileID: 0}
  m_Name: 
  m_EffectID: 46579f83658b24f79a9dcf46ed12d41c
  m_EffectName: Attenuation
  m_MixLevel: 01fc7b1ca09fc474389a4dbb07003ca6
  m_Parameters: []
  m_SendTarget: {fileID: 0}
  m_EnableWetMix: 0
  m_Bypass: 0
--- !u!245 &24500006
AudioMixerSnapshotController:
  m_ObjectHideFlags: 0
  m_CorrespondingSourceObject: {fileID: 0}
  m_PrefabInstance: {fileID: 0}
  m_PrefabAsset: {fileID: 0}
  m_Name: Snapshot
  m_AudioMixer: {fileID: 24100000}
  m_SnapshotID: 63f0ff65223bf4a679f31c67e3d3e46e
  m_FloatValues:
    ce8b25759a1bd4c6aa14ae03c922c2e8: -80
    cfa5682c5c3f3481aa6377fe83634ca4: 0
  m_TransitionOverrides: {}
